…
res2 <- purrr::map_dfr(list(top100, wiki, corner, testdt_tracking$url), diff)
nrow(res2)
```

    [1] 963

``` r
res2
```

    # A tibble: 963 × 3
       url                                                            ada   urltools
       <chr>                                                          <chr> <chr>   
     1 https://www.tiktok.com/@people                                 www.… people  
     2 https://flipboard.com/@people                                  flip… people  
     3 https://medium.com/@circulareconomy                            medi… circula…
     4 https://tiktok.com/@ellenmacarthurfoundation                   tikt… ellenma…
     5 https://mastodon.social/@Mozilla                               mast… mozilla 
     6 https://www.tiktok.com/@mozilla                                www.… mozilla 
     7 https://www.tiktok.com/@goodwillintl                           www.… goodwil…
     8 https://medium.com/@codeorg/cs-helps-students-outperform-in-s… medi… codeorg 
     9 https://medium.com/@codeorg/code-org-resourceful-teachers-hig… medi… codeorg 
    10 https://medium.com/@codeorg/study-computer-science-students-m… medi… codeorg 
    # ℹ 953 more rows
…
